178061 282993 443
197068 635339 509
896525 8438 525
843252 210209 525
333 682395 509
870703 551742 525
781554 868540 525
193174 484366 449
754324 153968 509
44592 224724 386
835317 330769 509
850939 732543 525
672335 356894 509
232792 121425 443
545913 251322 470
982885 164690 525
471515 824802 509
671094 696863 442
163805 88457 383
998581 211795 525
871526 692306 525
844419 748736 525
303409 742192 509
369735 82612 443
935813 196214 525
101421 107823 354
64441 268984 443
110914 190804 383
378402 10162 443
108562 486897 449
452059 743174 509
574725 602943 434
786798 982235 525
102136 535794 470
172381 279202 443
845605 341190 525
405522 36442 443
594426 705963 509
629070 137286 509
537803 562460 452
771011 821388 468
199280 893332 525
381161 822086 509
203241 800818 509
352485 323598 441
1379 154029 375
236536 834632 509
289381 985035 525
964057 183395 525
479678 254926 449
647725 731900 504
392612 914824 525
962667 77913 525
181153 545605 470
858356 359004 525
304935 708990 509
755431 784774 468
644979 974744 525
880575 386466 525
310131 342765 384
846913 959205 507
740649 872521 525
508601 686518 509
129875 732060 509
834435 16626 509
595203 613061 403
895409 330957 525
234217 657256 509
166911 462895 449
215257 474278 449
574987 796928 509
104755 450178 449
902470 681016 525
851289 963713 507
516146 527526 439
397763 585055 470
208942 675905 509
334892 947431 525
291964 707803 509
989332 953923 458
591141 260509 470
398850 435703 449
550338 748385 509
441241 170311 449
626244 461956 470
850716 452884 525
571153 504292 470
998399 561617 525
193467 515044 470
694987 310916 509
960266 202663 525
152465 28226 375
176613 579528 470
991281 466330 525
153950 741578 509
448523 50053 449
855993 796181 525
270990 800771 509
81316 319791 443
207586 549350 470
208392 785295 509
566586 109168 470
937566 146249 525
837099 347651 509
332090 154883 443
584980 807857 509
531276 955512 525
162817 797686 509
955040 179110 525
136243 732773 509
254106 236144 368
961600 720079 525
156526 608751 470
739561 427126 509
33883 398846 443
117905 655323 509
995880 242419 525
71840 329626 443
789784 111630 509
997512 384711 525
724661 911407 525
642496 728083 504
528165 444647 470
940851 956553 414
119378 673528 509
887417 525499 525
518949 682059 509
119637 639480 509
525814 448244 470
909054 1303 525
647208 241237 509
502717 546150 470
729906 328069 509
119 829870 509
221928 238000 443
213490 178001 373
41437 113329 354
250901 286633 407
569913 169334 470
395415 213772 443
605515 195770 470
49474 644299 509
624848 317845 470
447673 905182 525
591521 275268 470
789580 843750 525
229365 944033 525
949819 577850 525
660767 283669 509
46726 433495 449
532722 890193 525
601422 751244 509
458462 541780 470
678328 349271 509
73431 513916 470
326054 555231 470
974375 640189 525
674873 237973 509
82645 35727 351
502204 687547 509
248028 394415 441
140726 479677 449
379663 16254 443
329633 942753 525
245473 25170 443
735607 818424 468
149168 90640 375
150820 905645 525
236364 286274 407
510755 19431 449
700392 246142 509
815172 410157 509
796401 347411 509
82335 171540 383
57066 376849 443
350527 237785 441
3940 224139 386
846965 727084 525
604640 915552 525
32946 232551 443
790167 940721 525
76924 348454 443
616704 595409 447
481394 213784 449
823792 796522 450
49279 808025 509
896009 273961 525
299751 332093 384
13738 685368 509
396515 224640 443
321193 152328 443
358422 58035 443
604180 363088 470
821591 368023 509
363592 633348 509
851561 798976 525
240082 946943 525
563247 788116 509
822678 38091 509
356303 536999 470
