876013 506527 525
321288 101922 443
530691 889297 525
15295 822536 509
963138 202412 525
596567 74800 470
796640 36053 509
641593 54906 509
19844 688525 509
69600 538499 470
22150 500048 449
506445 735977 509
781841 280985 509
405879 870063 525
447853 914660 525
357376 429354 449
222678 26934 386
290673 884553 525
85137 478021 449
801661 3238 509
654889 337877 509
975748 303346 525
890306 3540 525
102355 901501 525
158540 233055 443
960647 907200 507
83697 628552 509
567428 877110 525
184264 86656 383
898273 165221 525
925950 670760 525
197553 412143 449
869494 972977 507
147094 758764 509
897426 101250 525
163642 741316 509
995283 288072 525
874076 30473 525
966475 367611 525
65726 19993 340
973580 266906 525
774622 278099 509
956151 356849 525
95139 536169 470
948529 54769 525
383456 215744 443
454255 40733 449
58120 302237 443
323231 967974 525
15640 333693 443
5931 272021 443
426341 181024 449
835515 85495 509
772139 902815 525
902541 141451 525
461122 716995 509
802899 286216 509
178292 785905 509
682733 791948 504
183740 861349 525
769115 186465 509
419931 527354 470
792577 896486 525
69258 690925 509
398336 819257 509
197463 909360 525
970894 153471 525
739522 458159 509
93268 290766 443
43289 807888 509
167531 874626 525
755832 953388 525
119301 592400 470
191389 944242 525
199407 52577 383
57307 987215 525
689980 997718 525
21213 376821 443
102818 803224 509
203745 993144 525
31199 868795 525
796703 856141 525
795769 162468 509
50376 661207 509
491044 743170 509
359866 946315 525
272684 529069 470
903376 440319 525
987220 211262 525
232486 703575 509
649346 268614 509
981659 789569 525
795460 9958 509
978562 137456 525
987844 347614 525
430246 687389 509
729527 66324 509
820978 105514 509
779491 54804 509
865257 738173 525
22276 531941 470
526919 944416 525
10599 594108 470
778244 183761 509
463581 280784 449
4451 918605 525
956121 362555 525
406583 829243 509
319470 999554 525
779734 911146 525
143480 749469 509
870120 754592 525
63479 605821 470
273878 645903 509
21803 315711 443
36120 856700 525
951608 358480 525
995209 886101 507
915317 626920 525
482949 988364 525
418828 942994 525
249138 76997 443
72637 973815 525
662590 967409 525
145752 657535 509
196873 979201 525
289689 963215 525
47790 421303 449
675705 215760 509
335157 948352 525
717927 227029 509
957019 423585 525
31874 785773 509
27426 482924 449
849568 543078 525
602135 767348 509
993047 338889 525
902999 460227 525
641888 984400 525
880754 179822 525
374218 10580 443
860888 388187 525
613328 932934 525
629241 16819 509
848217 247506 525
370914 99528 443
25442 867466 525
524259 660758 509
396353 62779 443
506921 697471 509
178369 592539 470
935678 270438 525
859586 394448 525
177268 654122 509
194807 8714 383
6284 504193 449
866495 466725 525
344771 119269 443
322683 986141 525
393630 994299 525
87898 555599 470
124988 2659 354
758516 270817 509
444860 982811 525
658335 679071 442
4571 389855 443
937713 368177 525
960212 620880 525
429176 4903 449
204822 13966 383
348084 958073 525
152977 776249 509
822645 373138 509
984008 342486 525
894497 469171 525
469824 145074 449
186164 880337 525
552888 112459 470
719728 54462 509
356626 662316 509
765168 371192 509
872358 270676 525
132383 925745 525
952852 297443 525
998988 619844 525
907896 59759 525
798950 421213 509
61792 974039 525
975869 525998 525
921569 187 525
257554 54361 443
940449 1909 525
770938 636721 504
178744 901268 525
161731 721642 509
640301 22207 509
465898 996135 525
365160 844887 525
736354 128789 509
609613 905462 525
263145 10696 443
911848 360401 525
874029 67122 525
723548 6297 509
133908 86737 354
252997 903827 525
129583 498656 449
204224 770766 509
207029 890432 525
328485 910087 525
268537 837586 509
958923 240036 525
135107 758060 509
538499 782562 509
865375 303011 525
681630 498644 509
986012 181668 525
461682 991900 525
820872 38887 509
29760 861384 525
345941 794761 509
427132 34954 449
807658 65808 509
483297 16645 449
384971 18675 443
86257 990809 525
166777 963878 525
643516 251168 509
935617 152647 525
21557 104745 351
310062 22214 443
398815 860160 525
996569 565065 525
911379 116874 525
977847 746641 525
181957 823628 509
278342 558831 470
621476 93969 470
36565 411536 449
898133 6139 525
745144 133601 509
816681 30525 509
928359 853211 476
639987 3820 509
847002 113302 525
951081 48288 525
561924 971234 525
88389 928344 525
295782 884417 525
489030 714483 509
873243 391847 525
867950 438601 525
253354 610778 470
206861 24234 383
834168 187030 509
835288 560647 509
464572 2224 449
314616 874576 525
935495 547686 525
60284 414200 449
68237 226771 386
590380 280676 470
701603 906255 525
712852 992349 525
263844 62901 443
503041 945014 525
390595 877476 525
91861 862589 525
535519 26578 470
608710 25111 470
183519 827624 509
942954 56779 525
102385 2876 351
712398 164668 509
648528 313365 509
247686 430701 449
404018 864903 525
549964 126579 470
747162 82042 509
28548 998673 525
7818 763308 509
671475 575924 509
688737 994423 525
5429 861068 525
863994 173122 525
398333 902853 525
718977 365038 509
851851 235689 525
192689 878116 525
739014 261417 509
14988 82377 351
546994 817611 509
124670 249110 443
974318 147800 525
184141 972026 525
807228 154906 509
8403 396068 443
243712 642026 509
940613 1757 525
806046 356841 509
32039 654547 509
121698 674315 509
745260 31273 509
456994 908810 525
35459 619095 470
413322 379046 449
962565 91944 525
545870 813613 509
940004 81004 525
95103 740836 509
607914 468317 470
860548 277689 525
904192 25568 525
969591 139503 525
312734 14580 443
351601 558926 470
938000 67711 525
644606 948610 525
21110 381943 443
937112 172724 525
328351 461178 449
190557 793984 509
45526 996041 525
49338 13836 324
87138 419735 449
974691 182804 525
971711 117006 525
929709 517936 525
996142 370991 525
274695 935124 525
771290 227326 509
5418 662038 509
189210 911567 525
402453 782177 509
975676 60428 525
796453 627089 504
846266 341828 525
342371 2365 443
918488 362519 525
672874 885068 525
460347 884576 525
379746 952325 525
976098 231132 525
619365 970113 525
340070 803130 509
989880 540820 525
5977 836074 509
820057 311581 509
92752 490829 449
130066 359235 443
686234 528641 509
833028 374701 509
305765 964087 525
996089 787241 525
905063 227317 525
646301 908766 525
685982 141822 509
280969 475846 449
110939 771498 509
15506 524252 470
512681 606744 452
62092 809956 509
805780 279316 509
264920 504398 449
91434 855707 525
564711 770774 509
583825 928461 525
89074 182163 383
448572 992802 525
96238 858407 525
898417 2625 525
999486 682950 525
63800 850187 525
974310 591301 525
170976 845042 525
597664 298343 470
731452 286213 509
621205 952309 525
671119 101940 509
20187 150039 375
668211 909994 525
183589 244940 443
339621 105236 443
999344 229779 525
279673 830296 509
762183 398503 509
90538 679142 509
743335 69175 509
921298 658736 525
412490 864965 525
77434 948742 525
930393 173012 525
52893 761208 509
522981 950450 525
914288 179779 525
76375 767509 509
133462 639566 509
12635 729577 509
568194 5758 470
838069 7874 525
312977 488326 449
996594 275417 525
378148 773784 509
351304 835718 509
324250 858371 525
27780 283031 443
216995 681586 509
349331 879704 525
465439 124037 449
457672 954019 525
956965 65553 525
713706 27226 509
42595 458466 449
317740 7043 443
572093 142973 470
478253 188854 449
709294 241550 509
899560 698585 525
66917 854454 525
418912 951300 525
341013 676664 509
62347 920056 525
757545 828388 468
998816 159854 525
916902 997401 507
499506 6082 449
1272 823079 509
141722 771496 509
267585 76033 443
907047 250450 525
594769 39 470
56731 596576 470
890790 958449 507
919299 892925 476
993023 322023 525
239858 571100 470
837590 124270 509
995747 91734 525
95022 69843 351
883092 214889 525
252554 574763 470
169568 699936 509
325416 96022 443
171940 817564 509
176332 235341 443
298276 971459 525
598012 984319 525
361385 880518 525
774641 376724 509
999443 414531 525
107811 786141 509
564465 412359 470
891821 30962 525
111224 788675 509
200946 689358 509
44173 773836 509
796219 445559 509
356703 42689 443
172615 462696 449
10228 962344 525
194544 664145 509
319081 954465 525
943556 310093 525
299415 991957 525
30674 145437 375
872 75648 340
951416 488334 525
913139 760124 525
893907 272577 525
955306 494657 525
968827 113073 525
42571 361609 443
971875 607370 525
533954 123523 470
209262 382439 443
390916 913311 525
998461 256649 525
878525 194346 525
59892 490793 449
865913 20339 525
994726 87155 525
250086 596397 470
919068 121167 525
817417 378263 509
999728 93911 525
1392 934220 525
118255 68070 354
853198 666848 525
471096 845959 525
713596 364788 509
562458 11222 470
235199 619267 470
438154 591323 470
41429 513509 470
264847 990178 525
954649 61616 525
975155 550632 525
198912 832835 509
71443 830023 509
470882 67200 449
751236 439110 509
345982 749667 509
884580 767232 525
810816 521334 509
90315 568441 470
537312 3769 470
524531 984086 525
569019 989332 525
366803 996691 525
629595 768137 504
911307 341168 525
496957 892764 525
247550 483123 449
531668 234782 470
21844 811290 509
28579 843249 525
55611 900263 525
300088 111037 443
142411 926550 525
350144 825438 509
155981 964130 525
64250 920569 525
262709 18700 443
280530 7987 443
993049 38956 525
443801 242533 449
459113 13570 449
828950 394359 509
990920 910935 507
557991 968702 525
397286 947040 525
10841 495419 449
15244 169839 383
354490 974671 525
950601 91564 525
480269 704931 509
243360 90430 443
907607 91646 525
983952 550009 525
859183 35204 525
821645 543814 509
934907 758424 525
329013 928808 525
257159 995884 525
575298 28015 470
755100 27596 509
783814 520357 509
457908 879209 525
72709 940875 525
138185 970233 525
676416 961130 525
223038 934315 525
323277 853528 525
309342 269749 407
280125 893865 525
380643 866537 525
409640 721382 509
970714 18793 525
521445 168518 470
868027 627095 525
525794 746175 509
464207 101336 449
785390 246453 509
108480 567066 470
125260 791251 509
899372 107518 525
873398 730152 525
577089 932092 525
655986 875243 525
865874 215573 525
767441 55974 509
291498 912014 525
307536 517839 470
199807 908294 525
694073 37019 509
485261 33736 449
1071 119300 354
186556 989005 525
202177 883552 525
227848 389723 443
376726 574656 470
47783 515895 470
911395 120232 525
838055 939480 476
259056 661157 509
298208 950080 525
988438 367128 525
368027 835357 509
524683 175191 470
998260 495376 525
133724 988055 525
797299 910065 525
391583 672520 509
229926 997253 525
883690 559148 525
11207 618455 470
684071 127732 509
507735 992082 525
962919 183072 525
496887 878862 525
659148 921169 525
133146 946574 525
440870 987918 525
185897 956381 525
922265 248667 525
739661 155371 509
152046 18861 375
851375 235816 525
393361 184806 443
18575 663154 509
739032 999302 525
363330 960104 525
986947 44079 525
376426 975053 525
695575 207025 509
844410 939508 507
932624 24230 525
32824 618067 470
986231 107863 525
208265 974306 525
136887 812584 509
413202 871865 525
954937 309894 525
361999 974752 525
976171 682925 525
846186 353939 525
852704 967215 507
251851 936907 525
728992 556441 509
81512 811239 509
321387 938738 525
254096 990577 525
760061 443639 509
102781 986312 525
118678 578041 470
903758 201621 525
792154 4164 509
61017 477565 449
167784 725497 509
787284 141900 509
498024 925802 525
940276 111431 525
4483 553671 470
255467 63999 443
742537 503731 509
937882 79215 525
78643 713585 509
930490 475921 525
103444 311879 443
994611 910699 507
942250 119936 525
949442 577413 525
898860 759119 525
252183 995616 525
750324 5071 509
73695 201854 383
855264 247563 525
76222 476388 449
982313 211938 525
882129 221835 525
697135 944048 525
511991 37720 470
956595 37880 525
503054 155089 449
150874 8050 375
689675 336052 509
545993 861334 525
16515 959095 525
283532 948966 525
148056 662629 509
174267 616064 470
847097 1988 525
456143 946784 525
825236 390338 509
325160 833327 509
221896 20688 386
16031 387346 443
977991 103766 525
12671 811093 509
847253 97738 525
831355 948537 525
564363 107373 470
105261 261015 443
43273 826290 509
604884 996930 525
966412 21426 525
394313 113137 443
894870 153203 525
957596 441570 525
625414 145544 470
253767 831726 509
675946 36784 509
783270 213942 509
719867 610172 509
680370 400928 509
364325 846766 525
931449 4292 525
455006 73433 449
936945 5591 525
462522 16275 449
6750 891893 525
712974 730030 411
56093 389640 443
171595 893112 525
550975 181087 470
52154 985220 525
389799 576707 470
539782 191577 470
992515 659427 525
176396 456399 449
2981 946850 525
384121 940814 525
662434 385770 509
119804 459234 449
230574 845842 525
728729 209537 509
328070 701520 509
167669 945966 525
962517 36849 525
354495 38507 443
794380 161845 509
45594 627321 509
866393 101132 525
128600 783129 509
955068 555684 525
28445 735393 509
99555 940720 525
182351 495580 449
653194 913601 525
111572 615846 470
928453 671241 525
702637 123919 509
968699 526999 525
402780 301172 441
120550 968913 525
991420 586663 525
466237 863645 525
325141 52357 443
690760 756201 504
281070 841015 525
558736 16459 470
123950 809424 509
987940 187446 525
692842 329813 509
564524 749542 509
943232 214041 525
782378 602756 509
423609 9138 449
166298 960598 525
133471 557642 470
832141 320245 509
129927 2487 354
220124 418026 449
87971 997792 525
811157 355914 509
160598 916669 525
5357 562820 470
140289 244145 443
213364 840535 525
459991 984456 525
579883 827744 509
23003 776776 509
17034 79515 351
858694 103008 525
111877 611938 470
977085 146780 525
183007 739051 509
582685 979984 525
847822 980207 507
391039 945144 525
580474 4836 470
65472 573440 470
953910 50948 525
906880 325019 525
78180 484245 449
117233 620833 470
594760 244176 470
319525 10014 443
962415 521958 525
948923 26139 525
14941 888293 525
119826 940610 525
110881 313278 443
985460 157879 525
110924 618303 470
728805 313676 509
966333 123085 525
740896 65142 509
156819 352545 443
911057 105973 525
654612 337163 509
192231 9874 383
154734 824914 509
3362 88022 351
56752 410033 449
222189 937223 525
14799 929548 525
567488 955209 525
271401 933341 525
999201 842117 507
375865 894947 525
415943 312709 449
922121 166859 525
16965 275716 443
246656 585152 470
600668 994662 525
446399 73209 449
928760 290915 525
23388 217140 386
308484 142159 443
554139 621657 447
36138 506730 449
134129 416280 449
516835 988208 525
178273 860650 525
951456 9379 525
939449 263059 525
983556 27038 525
54021 643132 509
446444 540384 470
968352 260284 525
963165 351224 525
653491 101798 509
8637 765443 509
284306 985330 525
997299 200529 525
291090 1371 443
631456 88876 509
544561 68303 470
123168 661534 509
252313 856596 525
780016 291204 509
459907 50093 449
101284 622830 470
225747 911627 525
973188 174451 525
76284 812715 509
184560 474308 449
320562 92463 443
252211 568844 470
883923 18235 525
740233 274349 509
926093 416282 525
280901 941571 525
126023 908256 525
937835 498944 525
879813 261212 525
386421 663794 509
671273 254034 509
895976 354821 525
37499 207325 383
708119 421255 509
404252 47185 443
87395 389346 443
950213 205624 525
787456 863936 525
114294 874047 525
243287 884567 525
884216 586330 525
800420 603519 509
227598 964540 525
981472 101982 525
301883 983617 525
367783 869382 525
928460 193330 525
959206 15651 525
349833 594682 470
472933 965649 525
74359 695226 509
64640 498862 449
511231 999247 525
514312 947008 525
31942 583723 470
435003 731023 509
681004 105329 509
971755 194977 525
865933 914519 476
324411 655323 509
91107 957419 525
700460 964096 525
833005 1957 509
701039 234326 509
562281 98745 470
995783 358188 525
747446 84709 509
123995 932925 525
714068 11914 509
898082 344682 525
704818 892109 525
556507 826160 509
49960 296234 443
80852 654893 509
944445 447586 525
42928 105639 351
880243 417191 525
512525 201983 470
885880 551646 525
22646 268563 443
221083 916612 525
117834 860040 525
772146 429212 509
531471 966795 525
763637 868569 525
848402 641325 525
936289 336209 525
426737 914636 525
101071 870619 525
107185 355470 443
609 849570 525
78376 863931 525
829650 104594 509
446163 182092 449
190186 918223 525
152933 578497 470
398819 714012 509
882114 410547 525
45760 308745 443
489219 845783 525
10126 504594 449
396388 709883 509
3123 497058 449
92033 908785 525
409755 834763 509
994030 318033 525
327355 557035 470
137157 914345 525
878473 213087 525
842963 659410 525
284690 474706 449
731832 956087 525
870191 34266 525
839918 707919 525
615451 262844 470
799935 166564 509
10684 241052 443
875270 156193 525
392407 126944 443
335275 167567 443
4809 724100 509
79407 956322 525
313039 390892 441
43368 824942 509
710571 41268 509
74815 773725 509
859114 47371 525
808577 909488 525
98908 909907 525
254036 859506 525
893118 788932 525
49659 605830 470
982514 663512 525
787458 42739 509
707273 988168 525
726405 243498 509
121886 540855 470
883342 356285 525
928871 836138 525
829486 71631 509
969681 14889 525
673160 749480 504
932518 584687 525
179448 573225 470
681894 142610 509
672494 68962 509
787140 940680 525
107092 718023 509
377139 108146 443
965697 78327 525
38977 838585 525
848135 425074 525
257414 981932 525
566256 371798 470
792 886172 525
159052 869134 525
387122 637752 509
911418 845889 476
57205 543900 470
962361 477913 525
133891 683420 509
52539 791631 509
819182 987184 525
126791 992478 525
963385 92317 525
101723 383880 443
87815 674390 509
294491 957265 525
919793 182112 525
910513 49398 525
121870 892879 525
377307 987656 525
251611 877743 525
997728 681130 525
8853 936490 525
82973 808974 509
194010 568053 470
434726 162682 449
874155 188345 525
774933 77378 509
34307 788754 509
