1 10 20
100 200 125
201 210 89
900 1000 174
14 82 116
11 25 24
14 51 112
9 33 112
6 71 113
10 28 112
6 58 113
5 44 112
10 29 112
12 30 112
10 62 113
14 24 21
12 36 112
11 65 113
5 63 113
12 22 21
5 25 24
12 66 113
5 32 112
14 75 116
7 49 112
7 22 21
13 57 113
6 20 21
12 81 116
7 60 113
11 37 112
10 50 112
10 71 113
12 56 113
14 46 112
13 26 24
5 46 112
13 21 21
8 35 112
8 25 24
13 25 24
7 64 113
11 40 112
5 34 112
9 68 113
7 28 112
7 81 116
10 58 113
10 32 112
10 73 116
11 45 112
12 56 113
5 65 113
12 33 112
10 44 112
6 47 112
9 35 112
11 24 21
11 51 112
11 36 112
7 67 113
10 50 112
5 34 112
9 78 116
10 59 113
7 26 24
10 62 113
9 64 113
13 25 24
7 80 116
12 39 112
14 59 113
8 20 21
13 61 113
8 77 116
8 23 21
13 51 112
10 47 112
7 40 112
8 69 113
14 82 116
8 50 112
14 29 112
5 53 112
11 75 116
13 48 112
13 40 112
9 26 24
10 51 112
9 67 113
11 38 112
8 51 112
9 37 112
5 52 112
13 47 112
11 73 116
9 21 21
8 36 112
6 70 113
5 74 116
14 26 24
9 62 113
10 53 112
14 80 116
6 50 112
7 68 113
5 58 113
12 43 112
7 71 113
6 33 112
9 48 112
13 70 113
8 66 113
8 22 21
8 20 21
10 38 112
8 82 116
12 48 112
11 44 112
8 58 113
7 36 112
8 26 24
12 45 112
5 28 112
10 45 112
12 61 113
9 42 112
12 60 113
9 43 112
7 81 116
11 38 112
8 20 21
11 46 112
9 29 112
11 32 112
7 47 112
8 50 112
14 66 113
9 38 112
5 78 116
9 31 112
12 54 113
8 48 112
10 48 112
14 48 112
12 43 112
1249 758 182
987 614 179
1198 112 182
1032 750 179
638 50 144
366 373 95
180 638 144
630 405 142
1022 201 179
227 652 145
579 649 145
1175 448 182
916 638 179
430 175 144
125 175 125
159 624 144
824 148 171
254 241 110
775 309 171
1154 525 179
58 266 128
202 132 125
697 577 145
582 277 144
5 639 144
457 430289 449
431 57 144
645 121 144
39 75 116
1170 519 182
266 198 128
1108 437 179
576 567 106
511 272 144
841 554 171
98 426 144
602 478 142
972 648 179
117 173 125
890 648 179
778 327 171
944 69 179
660 747 171
776 32 171
473 601 142
1034 21 179
993 200 179
1141 38 179
1111 399 179
1116 344 179
103 616 144
38 53 110
270 722 171
736 293 171
647 48 144
170 225 125
334 439 134
326 206 131
1160 337 179
1084 530 179
488 145 144
1219 153 182
622 691 145
324 281 131
557 98 144
93 407 144
196 300 128
490 329 142
129 607 144
145 537 144
1038 169 179
377 44 144
1186 627 182
809 227 171
1019 599 179
881 677 179
1056 603 179
1151 295 179
299 679 145
738 718 140
677 233 145
142 412 144
1140 449 179
278 573 144
1002 706 179
205 726 171
1145 203 179
1223 384 182
1198 174 182
331 657 145
648 682 145
1084 315 179
705 274 171
207 120 125
1031 261 179
944 252 179
1040 400 179
105 70 119
626 725 171
440 45 144
1038 183 179
375 164 144
27 127 119
896 619 179
1099 587 179
986 225 179
863 368 171
412 332 134
713 79 171
297 607 144
418 664 145
348 626 142
691 395 145
318 670 145
981 614 179
220 225 115
185 709 171
1213 539 182
815 61 171
473 460 129
344 726 171
147 537 144
577 622 132
1192 570 182
422 238 144
189 109 125
1120 405 179
648 200 144
1056 703 179
1199 600 182
792 650 171
486 340 134
250 658 145
528 222 144
372 596 142
376 637 142
615 562 132
964 652 179
1089 617 179
893 77 179
718 709 65
1120 333 179
230 253 128
366 272 144
379 389 121
100 116 114
81 546 144
601 691 145
846 224 171
786 492 171
1122 598 179
678 549 145
898 479 179
409 554 142
221 127 125
1051 480 179
434 125 144
989 97 179
484 204 144
1166 105 182
263 77 128
627 455 142
272 679 145
1075 297 179
1231 161 182
842 72 171
167 155 112
603 545 137
550 273 144
850 398 171
891 223 179
654 267 145
214 756 171
1137 136 179
744 737 140
95 451 144
233 378 144
1154 649 179
719 464 171
823 355 171
85 65 116
13 185 125
1023 346 179
502 724 171
914 351 179
143 65 122
1032 339 179
834 143 171
1135 363 179
112 290 128
1074 451 179
1135 78 179
907 235 179
1084 502 179
234 681 145
1083 110 179
747 437 171
897 227 179
1166 152 182
262 750 171
833 748 153
305 748 171
482 77 144
202 371 144
780 441 171
547 228 144
1216 37 182
1175 72 182
498 523 124
641 511 137
135 232 128
516 603 137
968 545 179
1028 72 179
373 253 144
356 562 142
982 593 179
302 106 128
426 357 134
44 543 144
48 628 144
167 168 68
21 284 128
1093 667 179
148 141 117
734 209 171
496 498 111
427 289 144
1212 386 182
164 241 128
59 2 113
