808397 816489 406
4113 480543 449
171480 386282 443
334434 701176 509
155856 429653 449
413932 756449 509
281504 634221 509
39930 485526 449
1107 376830 443
100119 763303 509
6970 205229 383
134475 471718 449
511215 621087 470
133946 921307 525
42689 468871 449
667266 984894 525
470772 676135 509
811955 858217 525
633825 907617 525
435774 750543 509
666133 802950 504
686928 736993 504
167556 832611 509
430594 476476 444
25297 667474 509
845821 882691 432
128566 900132 525
683328 815311 504
983673 985366 427
843532 928357 476
93768 224214 386
25000 215625 383
922406 961000 507
71485 867997 525
608382 789281 509
478870 815418 509
218016 577629 470
880307 885398 370
868513 996102 507
955147 999622 458
128025 633427 509
826411 892653 525
307225 547166 470
542100 831562 509
206826 848089 525
813173 908260 525
381714 922144 525
978774 992592 427
923412 939352 476
82164 181855 383
469025 879040 525
758077 955554 525
95626 584984 470
83490 194624 383
955466 975029 458
599970 662610 509
184795 970717 525
478752 484431 413
564199 671162 509
61428 328097 443
667707 971506 525
503064 705732 509
626016 831043 509
173938 414344 449
831209 881789 525
890927 948602 507
411690 519189 470
507887 844593 525
563441 910251 525
261111 919213 525
931791 992621 507
702001 778805 504
442042 829628 509
993677 996929 365
657821 839721 525
357355 781803 509
985913 986366 321
952762 999999 458
192189 670778 509
935758 998007 507
529158 549421 452
886862 966559 507
32840 309658 443
58951 405006 443
605113 620166 447
282329 429613 449
78747 877166 525
906456 968673 507
949175 996264 458
549993 716948 509
314245 658589 509
171169 868055 525
902950 989595 507
528779 676418 509
812344 897095 525
937677 972084 507
717284 945942 525
832033 860503 525
612085 877870 525
126544 869796 525
870811 935613 476
832282 842583 525
474993 791810 509
910491 984714 507
695585 764510 504
3247 887914 525
987368 998146 440
550543 722730 509
608428 821398 509
435320 645994 509
102815 150071 375
181721 206519 360
909035 997329 507
833665 905829 525
694995 838634 525
38605 377573 443
801676 870967 525
951540 996206 458
555258 879170 525
182917 231439 443
423486 860134 525
737846 794023 468
282398 960907 525
557476 781589 509
350721 582062 470
843723 909763 445
707283 916613 525
25221 722196 509
734263 778688 468
140225 931066 525
96017 424069 449
894304 907879 445
599821 869701 525
657915 786268 504
948368 959469 414
692070 801950 504
644560 835041 504
420452 548646 470
584435 752631 509
948772 981573 458
229457 360439 443
513581 706307 509
153056 719329 509
537474 904797 525
217782 866311 525
69731 942673 525
632369 688576 442
430913 740633 509
912265 960946 507
68473 734023 509
5966 482088 449
961095 988243 458
278241 634579 509
616991 964915 525
546639 915486 525
158919 210673 373
601146 857422 525
801094 935763 525
784182 988876 525
857031 891653 445
713667 796650 468
940498 968780 414
526810 721420 509
899588 923423 476
447993 711384 509
922230 976134 507
837129 896032 525
921344 936304 476
11831 52269 324
411725 430495 418
820136 895456 525
359800 396423 436
629362 719991 504
456034 816977 509
865417 939885 507
874418 880265 432
277079 415354 449
153517 827052 509
411098 642879 509
80432 861687 525
892561 950911 507
487629 780302 509
170108 204492 365
818998 982442 525
78029 480994 449
53035 308418 443
990033 991337 321
877597 899972 445
448754 621760 470
751816 860759 525
636816 907493 525
298532 933088 525
39547 903228 525
479308 618960 470
935863 980736 507
229926 772990 509
372191 575680 470
801930 846816 525
330629 752975 509
486269 738457 509
